module RestApi_tutorial/http-rest-api

go 1.14

require (
	github.com/BurntSushi/toml v0.3.1
	github.com/asaskevich/govalidator v0.0.0-20200428143746-21a406dcc535 // indirect
	github.com/go-ozzo/ozzo-validation v3.6.0+incompatible
	github.com/google/uuid v1.1.1
	github.com/gorilla/handlers v1.4.2
	github.com/gorilla/mux v1.7.4
	github.com/gorilla/securecookie v1.1.1
	github.com/gorilla/sessions v1.2.0
	github.com/jmoiron/sqlx v1.2.0 // indirect
	github.com/lib/pq v1.4.0
	github.com/sirupsen/logrus v1.6.0
	github.com/stretchr/testify v1.5.1
	golang.org/x/crypto v0.0.0-20200429183012-4b2356b1ed79
)
